{ 
    "_id" : ObjectId("60bfbfc072f2b16bb7f17564"), 
    "codigo" : "011", 
    "nome" : "Alfa", 
    "agencias" : [
        {
            "_id" : ObjectId("60bfba2b72f2b16bb7f17549")
        }, 
        {
            "_id" : ObjectId("60bfcde872f2b16bb7f175a9")
        }, 
        {
            "_id" : ObjectId("60bfce4672f2b16bb7f175aa")
        }
    ]
}
{ 
    "_id" : ObjectId("60bfd3ba72f2b16bb7f175cf"), 
    "codigo" : "241", 
    "nome" : "Beta", 
    "agencias" : [
        {
            "_id" : ObjectId("60bfd1dd72f2b16bb7f175c7")
        }
    ]
}
{ 
    "_id" : ObjectId("60bfd3d772f2b16bb7f175d0"), 
    "codigo" : "307", 
    "nome" : "Omega", 
    "agencias" : [
        {
            "_id" : ObjectId("60bfd24b72f2b16bb7f175c8")
        }, 
        {
            "_id" : ObjectId("60bfd2aa72f2b16bb7f175c9")
        }, 
        {
            "_id" : ObjectId("60bfd30472f2b16bb7f175ca")
        }
    ]
}
