{ 
    "_id" : ObjectId("60bfb66872f2b16bb7f17500"), 
    "codigo" : "0", 
    "saldo" : 0.0, 
    "tipoConta" : "PF", 
    "clientes" : [
        {
            "_id" : ObjectId("60bfb6c072f2b16bb7f1750e")
        }
    ], 
    "gerentes" : [
        {
            "_id" : ObjectId("60bfb6c072f2b16bb7f1750e")
        }
    ], 
    "movimentacoes" : [
        {
            "_id" : ObjectId("60bfb74672f2b16bb7f1751f")
        }, 
        {
            "_id" : ObjectId("60bfcabf72f2b16bb7f17593")
        }, 
        {
            "_id" : ObjectId("60bfcacf72f2b16bb7f17594")
        }
    ]
}
